PING google.com (142.251.12.138): 56 data bytes
64 bytes from 142.251.12.138: icmp_seq=0 ttl=105 time=23.055 ms
64 bytes from 142.251.12.138: icmp_seq=1 ttl=105 time=26.473 ms
64 bytes from 142.251.12.138: icmp_seq=2 ttl=105 time=34.914 ms

--- google.com ping statistics ---
3 packets transmitted, 3 packets received, 0.0% packet loss
round-trip min/avg/max/stddev = 23.055/28.147/34.914/4.984 ms
